{
	"info": {
		"_postman_id": "734e6846-4a79-47cd-8100-2de6055cf2e4",
		"name": "CRUD - Postman Collection",
		"schema": "https://schema.getpostman.com/json/collection/v2.1.0/collection.json"
	},
	"item": [
		{
			"name": "endpoint contact",
			"item": [
				{
					"name": "Create",
					"request": {
						"auth": {
							"type": "bearer",
							"bearer": [
								{
									"key": "token",
									"value": "{{token}}",
									"type": "string"
								}
							]
						},
						"method": "POST",
						"header": [
							{
								"key": "Content-Type",
								"name": "Content-Type",
								"value": "application/json",
								"type": "text"
							}
						],
						"body": {
							"mode": "raw",
							"raw": "{\n\t\"name\":\"Pepe\",\n\t\"lastname\": \"Ruiz Montoya\",\n\t\"movil\": 12343434,\n\t\"email\": \"ad99sa@asdasd.com\"\n}",
							"options": {
								"raw": {
									"language": "json"
								}
							}
						},
						"url": {
							"raw": "{{BASE_URL}}/api/contact",
							"host": [
								"{{BASE_URL}}"
							],
							"path": [
								"api",
								"contact"
							]
						}
					},
					"response": []
				},
				{
					"name": "Read",
					"request": {
						"method": "GET",
						"header": [],
						"url": {
							"raw": "{{BASE_URL}}/api/contact/2",
							"host": [
								"{{BASE_URL}}"
							],
							"path": [
								"api",
								"contact",
								"2"
							]
						}
					},
					"response": []
				},
				{
					"name": "Update",
					"request": {
						"method": "PUT",
						"header": [
							{
								"key": "Content-Type",
								"name": "Content-Type",
								"value": "application/json",
								"type": "text"
							}
						],
						"body": {
							"mode": "raw",
							"raw": "{\n\t\"name\":\"Alan\",\n\t\"lastname\": \"Cornejo Salazar\"\n}",
							"options": {
								"raw": {
									"language": "json"
								}
							}
						},
						"url": {
							"raw": "{{BASE_URL}}/api/contact/2",
							"host": [
								"{{BASE_URL}}"
							],
							"path": [
								"api",
								"contact",
								"2"
							]
						}
					},
					"response": []
				},
				{
					"name": "Delete",
					"request": {
						"method": "DELETE",
						"header": [],
						"url": {
							"raw": "localhost:8080/api/contact/3",
							"host": [
								"localhost"
							],
							"port": "8080",
							"path": [
								"api",
								"contact",
								"3"
							]
						}
					},
					"response": []
				},
				{
					"name": "List",
					"request": {
						"auth": {
							"type": "bearer",
							"bearer": [
								{
									"key": "token",
									"value": "{{token}}",
									"type": "string"
								}
							]
						},
						"method": "GET",
						"header": [],
						"url": {
							"raw": "{{BASE_URL}}/api/contact",
							"host": [
								"{{BASE_URL}}"
							],
							"path": [
								"api",
								"contact"
							]
						}
					},
					"response": []
				}
			],
			"protocolProfileBehavior": {}
		},
		{
			"name": "endpoint auth",
			"item": [
				{
					"name": "Create User",
					"request": {
						"method": "POST",
						"header": [],
						"body": {
							"mode": "raw",
							"raw": "{\n\t\"email\": \"prue@gmail.com\",\n\t\"password\":\"peuaaa2018\"\n}",
							"options": {
								"raw": {
									"language": "json"
								}
							}
						},
						"url": {
							"raw": "{{BASE_URL}}/api/user",
							"host": [
								"{{BASE_URL}}"
							],
							"path": [
								"api",
								"user"
							]
						}
					},
					"response": []
				},
				{
					"name": "Login Auth",
					"request": {
						"method": "POST",
						"header": [],
						"body": {
							"mode": "raw",
							"raw": "{\n\t\"email\": \"alancix02@gmail.com\",\n\t\"password\":\"peru2018\"\n}",
							"options": {
								"raw": {
									"language": "json"
								}
							}
						},
						"url": {
							"raw": "{{BASE_URL}}/api/login",
							"host": [
								"{{BASE_URL}}"
							],
							"path": [
								"api",
								"login"
							]
						}
					},
					"response": []
				}
			],
			"protocolProfileBehavior": {}
		}
	],
	"event": [
		{
			"listen": "prerequest",
			"script": {
				"id": "242a9487-1840-4941-bfab-a6d1d273025e",
				"type": "text/javascript",
				"exec": [
					""
				]
			}
		},
		{
			"listen": "test",
			"script": {
				"id": "b52c1b8c-490b-4701-896b-9df8935a721e",
				"type": "text/javascript",
				"exec": [
					""
				]
			}
		}
	],
	"protocolProfileBehavior": {}
}